Questions ;Réponse 1;good 1;intelligence 1;courage 1;ambition 1;Réponse 2 ;good 2;intelligence 2;courage 2;ambition 2;Réponse 3;good 3;intelligence 3;courage 3;ambition 3
Qu'est-ce qui t'effraie le plus ?;Les araignées;9;3;0;3;Une mauvaise note;2;9;3;7;Une critique négative;5;1;3;8
Qu'est-ce que tu préfères ?;Lire un bon livre;3;8;2;4;Escalader une falaise;1;2;9;6;Jouer aux cartes avec tes amis;8;2;2;4
Quel est ton genre de musique preférée ?;La pop;7;2;3;6;Le classique;3;7;4;6;Le Hard-Rock;2;3;8;4
Ton animal préféré ?;Le chien;8;2;4;4;Le renard;2;8;4;7;L'aigle;2;4;8;6
Tu veux être connu pour ?;Avoir trouvé le vaccin contre le cancer;4;9;2;4;Etre le plus beau;3;1;2;9;Etre à la tête d'un pays;1;5;9;6
Qu'est ce que tu ferais si tu gagnait au loto ?;Partager avec mes amis;9;2;6;0;Investir;3;9;3;6;Je garderais tout pour moi;0;4;2;9
Quelles sont vos vacances révées ?;Aller camper avec des amis;9;3;5;0;Partir à la recherche d'un trésor;3;2;9;7;Rester chez moi pour m'instruire;2;9;2;4
Quel est le but de la vie ?;Etre le meilleur ;0;1;4;9;Avoir un poste important;0;7;2;4;Avoir pleins d'amis;8;1;5;2
Comment reagis-tu si quelqu-un se fait agresser dans la rue ?;Je reste loin et appelle les secours;8;6;2;2;Je vais confronter l'agresseur ;1;1;8;6;J'essaie de calmer la situation par le dialogue;4;8;2;0
Quelqu'un fait un malaise, comment reagis-tu ?;Je le met en pls;2;7;4;1;Je panique et appelle les secours;7;4;1;1;J'en profite pour lui prendre son portefeuille;0;0;0;3
Quelle est ta matière préférée ?;Les maths;1;7;2;3;La sociologie;5;3;1;0;Le sport;1;0;5;6
Tu a un gros DS demain prevu depuis un mois;Pas de problème je suis prêt ;4;7;5;4;J'y vais au talent on verra bien !;4;0;7;6;J'ai des superbes idées de triche;0;0;0;3
Quel est ton plat préféré ?;Un truc bien épicé pour impressioner les autres;2;0;4;6;Un plat avec tous les nutriments necessaires;1;6;4;2;Des saucisses;2;1;1;1
Quel est ton type de film préféré ?;Les comédie;5;1;2;0;Les documentaires;0;4;1;0;Une film d'aventure ;2;1;6;3
Quel est ton type de livre préféré ?;Les BD;6;2;3;2;Les revues scientifiques;1;6;2;2;Roman policier;1;3;5;4
